City,M_prime,Gamma,Ac,At,eps,Phi
Chicago,-1,-1,-1,-1,-1,-1
Detroit,1,-1,-1,-1,1,-1
Atlanta,1,1,-1,-1,-1,1
Omaha,1,1,-1,1,-1,-1
Wichita,1,1,1,-1,1,-1
Miami,1,-1,1,-1,-1,1
Boston,-1,1,1,-1,-1,-1
Seattle,-1,1,-1,-1,1,1
Fresno,1,-1,-1,1,1,1
Tulsa,1,-1,1,1,-1,-1
Phoenix,-1,-1,-1,1,-1,1
Philly,-1,-1,1,-1,1,1
Austin,-1,-1,1,1,1,-1
Denver,-1,1,-1,1,1,-1
Memphis,-1,1,1,1,-1,1
Tampa,1,1,1,1,1,1
